{
  "devToolsPort": 19002,
  "expoServerPort": 19000,
  "packagerPort": 19001,
  "packagerPid": 3921,
  "expoServerNgrokUrl": "https://hi-8k2.anonymous.ultcollab.exp.direct",
  "packagerNgrokUrl": "https://packager.hi-8k2.anonymous.ultcollab.exp.direct",
  "ngrokPid": 3976
}
